^C:\USERS\TV\DESKTOP\PROIECT_TEST\PROIECT_TEST\X64\DEBUG\CAMERA.OBJ|C:\USERS\TV\DESKTOP\PROIECT_TEST\PROIECT_TEST\X64\DEBUG\LAMP.OBJ|C:\USERS\TV\DESKTOP\PROIECT_TEST\PROIECT_TEST\X64\DEBUG\MAIN.OBJ|C:\USERS\TV\DESKTOP\PROIECT_TEST\PROIECT_TEST\X64\DEBUG\SHADER.OBJ|C:\USERS\TV\DESKTOP\PROIECT_TEST\PROIECT_TEST\X64\DEBUG\SHAPE.OBJ|C:\USERS\TV\DESKTOP\PROIECT_TEST\PROIECT_TEST\X64\DEBUG\TEXTURE.OBJ
C:\USERS\TV\DESKTOP\PROIECT_TEST\X64\DEBUG\PROIECT_TEST.EXE
C:\USERS\TV\DESKTOP\PROIECT_TEST\X64\DEBUG\PROIECT_TEST.ILK
C:\USERS\TV\DESKTOP\PROIECT_TEST\X64\DEBUG\PROIECT_TEST.PDB
